,wd_id,hathi_name,wd_label,count_ger,count_fren,count_eng,gnd,lc,dob,dod,lc_label
0,http://www.wikidata.org/entity/Q36303,Thales,Thales,0.53,0.32,0.47,118801732,n86024245,-600,-550,"Thales, approximately 634 B.C.-approximately 546 B.C."
1,http://www.wikidata.org/entity/Q131671,Xenophanes,Xenophanes,0.29,0.25,0.25,118635794,n82105600,-570,-460,"Xenophanes, approximately 570 B.C.-approximately 478 B.C."
2,http://www.wikidata.org/entity/Q10261,Pythagoras,Pythagoras,0.94,0.59,0.92,118597248,n80162846,-570,-490,Pythagoras
3,http://www.wikidata.org/entity/Q41155,Heraclitus,Heraclitus,0.8,0.62,0.87,118549421,n78095675,-550,-480,"Heraclitus, of Ephesus"
4,http://www.wikidata.org/entity/Q125551,Parmenides,Parmenides,0.77,0.67,0.73,118591770,n79065281,-515,-445,Parmenides
5,http://www.wikidata.org/entity/Q83041,Anaxagoras,Anaxagoras,0.9,0.69,0.99,118502727,n50051902,-500,-428,Anaxagoras
6,http://www.wikidata.org/entity/Q179785,Gorgias,Gorgias,0.37,0.32,0.35,118696521,n82106049,-480,-380,"Gorgias, of Leontini"
7,http://www.wikidata.org/entity/Q913,Socrates,Socrates,3.98,2.97,4.33,118615270,n79055329,-469,-399,Socrates
8,http://www.wikidata.org/entity/Q41980,Democritus,Democritus,0.25,0.7,1.22,11852464X,n79041650,-460,-370,"Democritus, approximately 460 B.C.-approximately 370 B.C."
9,http://www.wikidata.org/entity/Q129772,Xenophon,Xenophon,0.45,0.22,0.64,118635808,n80036673,-430,-354,Xenophon
10,http://www.wikidata.org/entity/Q859,Plato,Plato,9.99,8.09,9.76,118594893,n79139459,-427,-347,Plato
11,http://www.wikidata.org/entity/Q868,Aristotle,Aristotle,5.97,10.09,9.97,118650130,n79004182,-384,-322,Aristotle
12,http://www.wikidata.org/entity/Q1541,Cicero,Cicero,1.17,0.91,0.93,118520814,n79032166,-106,-43,"Cicero, Marcus Tullius"
13,http://www.wikidata.org/entity/Q189597,Philo,Philo of Alexandria,0.34,0.57,0.49,118594001,n80051891,-25,40,"Philo, of Alexandria"
14,http://www.wikidata.org/entity/Q302,Christ,Jesus,1.9,1.31,1.93,118557513,n79084784,0,30,Jesus Christ
15,http://www.wikidata.org/entity/Q2054,Seneca,Seneca,0.42,0.36,0.36,118613200,n79004229,1,65,"Seneca, Lucius Annaeus, approximately 4 B.C.-65 A.D."
16,http://www.wikidata.org/entity/Q41523,Plutarch,Plutarch,0.5,0.33,0.63,118595237,n79026763,45,120,Plutarch
17,http://www.wikidata.org/entity/Q8018,Augustine,Augustine of Hippo,1.02,2.01,1.3,118505114,n80126290,354,430,"Augustine, of Hippo, Saint, 354-430"
18,http://www.wikidata.org/entity/Q8011,Avicenna,Avicenna,0.23,0.48,0.38,118505254,n80002386,980,1037,"Avicenna, 980-1037"
19,http://www.wikidata.org/entity/Q60059,Albert,Albertus Magnus,0.51,1.18,0.31,118637649,n81007973,1193,1280,"Albertus, Magnus, Saint, 1193?-1280"
20,http://www.wikidata.org/entity/Q9438,Thomas,Thomas Aquinas,1.73,3.63,2.37,118622110,n78095790,1225,1274,"Thomas, Aquinas, Saint, 1225?-1274"
21,http://www.wikidata.org/entity/Q36330,Bruno,Giordano Bruno,0.63,0.47,0.55,118516221,n79090025,1548,1600,"Bruno, Giordano, 1548-1600"
22,http://www.wikidata.org/entity/Q37388,Bacon,Francis Bacon,2.05,1.56,1.3,118505696,n79100235,1561,1626,"Bacon, Francis, 1561-1626"
23,http://www.wikidata.org/entity/Q307,Galileo,Galileo Galilei,0.3,0.46,0.35,118537229,n79003254,1564,1642,"Galilei, Galileo, 1564-1642"
24,http://www.wikidata.org/entity/Q37621,Hobbes,Thomas Hobbes,1.05,1.07,1.1,118551698,n79059190,1588,1679,"Hobbes, Thomas, 1588-1679"
25,http://www.wikidata.org/entity/Q9191,Descartes,René Descartes,2.08,6.65,2.49,118524844,n79061201,1596,1650,"Descartes, René, 1596-1650"
26,http://www.wikidata.org/entity/Q1290,Pascal,Blaise Pascal,0.25,0.76,0.26,118591843,n79084279,1623,1662,"Pascal, Blaise, 1623-1662"
27,http://www.wikidata.org/entity/Q9353,Locke,John Locke,0.81,2.68,3.73,118573748,n79090225,1632,1704,"Locke, John, 1632-1704"
28,http://www.wikidata.org/entity/Q35802,Spinoza,Benedictus de Spinoza,3.9,2.71,2.83,118616242,n79018753,1632,1677,"Spinoza, Benedictus de, 1632-1677"
29,http://www.wikidata.org/entity/Q935,Newton,Isaac Newton,0.66,0.68,1.06,118587544,n79007443,1643,1727,"Newton, Isaac, 1642-1727"
30,http://www.wikidata.org/entity/Q9047,Leibniz,Gottfried Wilhelm Leibniz,4.68,4.67,4.06,118571249,n79081493,1646,1716,"Leibniz, Gottfried Wilhelm, Freiherr von, 1646-1716"
31,http://www.wikidata.org/entity/Q214816,Bayle,Pierre Bayle,0.21,0.61,0.28,11850777X,n50005530,1647,1706,"Bayle, Pierre, 1647-1706"
32,http://www.wikidata.org/entity/Q76510,Wolff,Christian Wolff,1.23,0.31,0.49,118634771,n79115505,1679,1754,"Wolff, Christian, Freiherr von, 1679-1754"
33,http://www.wikidata.org/entity/Q82049,Berkeley,George Berkeley,0.75,0.61,1.42,118509616,n79055588,1685,1753,"Berkeley, George, 1685-1753"
34,http://www.wikidata.org/entity/Q37160,Hume,David Hume,1.41,0.96,2.41,118554735,n79054039,1711,1776,"Hume, David, 1711-1776"
35,http://www.wikidata.org/entity/Q6527,Rousseau,Jean-Jacques Rousseau,0.49,0.89,1.07,118603426,n79008220,1712,1778,"Rousseau, Jean-Jacques, 1712-1778"
36,http://www.wikidata.org/entity/Q448,Diderot,Denis Diderot,0.27,0.37,0.31,118525263,n79081610,1713,1784,"Diderot, Denis, 1713-1784"
37,http://www.wikidata.org/entity/Q272119,Condillac,Étienne Bonnot de Condillac,0.19,0.87,0.34,118521756,n79054773,1714,1780,"Condillac, Etienne Bonnot de, 1714-1780"
38,http://www.wikidata.org/entity/Q9312,Kant,Immanuel Kant,9.87,4.21,6.31,118559796,n79021614,1724,1804,"Kant, Immanuel, 1724-1804"
39,http://www.wikidata.org/entity/Q168004,Jacobi,Friedrich Heinrich Jacobi,1.15,0.46,0.41,118556312,n81084575,1743,1819,"Jacobi, Friedrich Heinrich, 1743-1819"
40,http://www.wikidata.org/entity/Q102585,Fichte,Johann Gottlieb Fichte,0.64,1.33,0.69,118532847,n79003279,1762,1814,"Fichte, Johann Gottlieb, 1762-1814"
41,http://www.wikidata.org/entity/Q76576,Schleiermacher,Friedrich Daniel Ernst Schleiermacher,0.84,0.23,0.48,118608045,n80032769,1768,1834,"Schleiermacher, Friedrich, 1768-1834"
42,http://www.wikidata.org/entity/Q9235,Hegel,Georg Wilhelm Friedrich Hegel,6.9,2.2,4.62,118547739,n79021767,1770,1831,"Hegel, Georg Wilhelm Friedrich, 1770-1831"
43,http://www.wikidata.org/entity/Q60070,Schelling,Friedrich Wilhelm Joseph Schelling,4.32,1.18,1.76,118607057,n79003281,1775,1854,"Schelling, Friedrich Wilhelm Joseph von, 1775-1854"
44,http://www.wikidata.org/entity/Q76685,Herbart,Johann Friedrich Herbart,0.25,0.3,0.48,11854943X,n50038121,1776,1841,"Herbart, Johann Friedrich, 1776-1841"
45,http://www.wikidata.org/entity/Q38193,Schopenhauer,Arthur Schopenhauer,1.82,0.46,0.94,118610465,n80032764,1788,1860,"Schopenhauer, Arthur, 1788-1860"
46,http://www.wikidata.org/entity/Q9358,Nietzsche,Friedrich Nietzsche,0.47,0.33,0.64,118587943,n79021132,1844,1900,"Nietzsche, Friedrich Wilhelm, 1844-1900"
