,Philosopher,Count
71,Platon,115629
50,Kant,114316
41,Hegel,79926
2,Aristoteles,69137
53,Leibniz,54242
80,Schelling,50021
88,Sokrates,46034
89,Spinoza,45174
23,Descartes,24050
7,Bacon,23765
17,Christus,22024
84,Schopenhauer,21071
93,Thomas,19994
60,Marx,16518
48,Hume,16277
96,Wolff,14208
18,Cicero,13545
49,Jacobi,13322
46,Hobbes,12103
3,Augustinus,11838
36,Goethe,11574
27,Engels,11062
75,Pythagoras,10869
54,Lenin,10832
1,Anaxagoras,10367
83,Schleiermacher,9719
100,Zenon,9467
56,Locke,9368
42,Heraklit,9222
67,Parmenides,8924
10,Berkeley,8633
31,Feuerbach,8325
99,Zeller,8197
64,Newton,7612
81,Schiller,7578
32,Fichte,7363
14,Bruno,7319
76,Reinhold,6976
40,Hartmann,6203
91,Thales,6141
58,Luther,6120
0,Albert,5849
72,Plutarch,5786
77,Rousseau,5696
65,Nietzsche,5404
98,Xenophon,5260
69,Paulus,5161
85,Seneca,4886
37,Gorgias,4228
47,Homer,4206
70,Philo,3969
28,Erdmann,3939
25,Duns Scotus,3851
63,Moses,3850
35,Gassendi,3748
57,Lotze,3706
39,Hamann,3659
82,Schlegel,3597
55,Lessing,3576
16,Campanella,3535
45,Hesiod,3467
59,Maimonides,3423
34,Galilei,3422
97,Xenophanes,3411
9,Beneke,3402
21,Darwin,3285
6,Baader,3278
24,Diderot,3173
92,Theophrast,3122
26,Eckhart,3081
61,Melanchthon,3068
62,Mendelssohn,2941
22,Demokrit,2920
68,Pascal,2905
43,Herbart,2904
95,Trendelenburg,2869
79,Saadja,2834
15,Böhme,2829
87,Simplicius,2777
52,Krause,2759
44,Herder,2736
94,Thomasius,2733
5,Avicenna,2717
86,Shaftesbury,2625
78,Ruge,2565
12,Bonaventura,2550
30,Fechner,2467
8,Bayle,2401
29,Erigena,2362
38,Grotius,2318
90,Steffens,2284
51,Kepler,2259
74,Prantl,2236
4,Averroes,2224
20,Condillac,2194
11,Boethius,2163
73,Porphyrius,2151
33,Fries,2139
19,Clarke,2041
13,Brandis,1990
